task4/f1_full.vcd
$version Generated by VerilatedVcd $end
$date Sun Nov  5 17:41:34 2023 $end
$timescale 1ps $end

 $scope module TOP $end
  $var wire  5 2 N [4:0] $end
  $var wire  1 / clk $end
  $var wire  8 3 data_out [7:0] $end
  $var wire  1 0 rst $end
  $var wire  1 1 trigger $end
  $scope module f1_full $end
   $var wire 32 7 DELAY_WIDTH [31:0] $end
   $var wire 32 8 LIGHTS_WIDTH [31:0] $end
   $var wire  5 2 N [4:0] $end
   $var wire 32 6 N_WIDTH [31:0] $end
   $var wire  1 / clk $end
   $var wire  1 % clktick_tick $end
   $var wire  1 $ cmd_delay $end
   $var wire  1 # cmd_seq $end
   $var wire  8 3 data_out [7:0] $end
   $var wire  1 & delay_timeout $end
   $var wire  1 ' lights_en $end
   $var wire  7 4 pseudo_random_delay [6:0] $end
   $var wire  1 0 rst $end
   $var wire  1 1 trigger $end
   $scope module delay_countdown $end
    $var wire 32 7 WIDTH [31:0] $end
    $var wire  1 / clk $end
    $var wire  7 ( count [6:0] $end
    $var wire 32 ) current_state [31:0] $end
    $var wire  7 4 n [6:0] $end
    $var wire 32 * next_state [31:0] $end
    $var wire  1 0 rst $end
    $var wire  1 & time_out $end
    $var wire  1 $ trigger $end
   $upscope $end
   $scope module delay_randomizer $end
    $var wire 32 7 DATA_WIDTH [31:0] $end
    $var wire  1 / clk $end
    $var wire  7 4 data_out [6:0] $end
    $var wire  1 9 en $end
    $var wire  1 0 rst $end
    $var wire  7 4 sreg [7:1] $end
   $upscope $end
   $scope module lights_fsm $end
    $var wire 32 8 LIGHTS_WIDTH [31:0] $end
    $var wire  1 / clk $end
    $var wire  1 $ cmd_delay $end
    $var wire  1 # cmd_seq $end
    $var wire 32 + current_state [31:0] $end
    $var wire  8 3 data_out [7:0] $end
    $var wire  1 ' en $end
    $var wire 32 , next_state [31:0] $end
    $var wire  1 0 rst $end
    $var wire  1 1 trigger $end
    $var wire 32 - trigger_flag [31:0] $end
    $var wire 32 5 trigger_flag_next [31:0] $end
   $upscope $end
   $scope module wait_one_second $end
    $var wire  5 2 N [4:0] $end
    $var wire 32 6 WIDTH [31:0] $end
    $var wire  1 / clk $end
    $var wire  5 . count [4:0] $end
    $var wire  1 # en $end
    $var wire  1 0 rst $end
    $var wire  1 % tick $end
   $upscope $end
  $upscope $end
 $upscope $end
$enddefinitions $end


#0
1#
0$
0%
0&
0'
b0000000 (
b00000000000000000000000000000000 )
b00000000000000000000000000000000 *
b00000000000000000000000000000000 +
b00000000000000000000000000000001 ,
b00000000000000000000000000000000 -
b00000 .
1/
00
01
b10011 2
b00000000 3
b0000000 4
b00000000000000000000000000000000 5
b00000000000000000000000000000101 6
b00000000000000000000000000000111 7
b00000000000000000000000000001000 8
19
#1
0/
#2
1%
1'
b1111111 (
b10011 .
1/
10
b00000000000000000000000000000001 5
#3
0/
b1111111 4
#4
0%
0'
b1111110 (
b00000000000000000000000000000000 ,
b00000000000000000000000000000001 -
1/
#5
0/
#6
1/
00
#7
0/
#8
b1111101 (
b10010 .
1/
b1111110 4
#9
0/
#10
b1111100 (
b10001 .
1/
b1111100 4
#11
0/
#12
b1111011 (
b10000 .
1/
b1111000 4
#13
0/
#14
b1111010 (
b01111 .
1/
b1110001 4
#15
0/
#16
b1111001 (
b01110 .
1/
b1100011 4
#17
0/
#18
b1111000 (
b01101 .
1/
b1000111 4
#19
0/
#20
b1110111 (
b01100 .
1/
b0001110 4
#21
0/
#22
b1110110 (
b01011 .
1/
b0011101 4
#23
0/
#24
b1110101 (
b01010 .
1/
b0111011 4
#25
0/
#26
b1110100 (
b01001 .
1/
b1110110 4
#27
0/
#28
b1110011 (
b01000 .
1/
b1101100 4
#29
0/
#30
b1110010 (
b00111 .
1/
b1011000 4
#31
0/
#32
b1110001 (
b00110 .
1/
b0110001 4
#33
0/
#34
b1110000 (
b00101 .
1/
b1100010 4
#35
0/
#36
b1101111 (
b00100 .
1/
b1000101 4
#37
0/
#38
b1101110 (
b00011 .
1/
b0001010 4
#39
0/
#40
b1101101 (
b00010 .
1/
b0010100 4
#41
0/
#42
b1101100 (
b00001 .
1/
b0101001 4
#43
0/
#44
b1101011 (
b00000 .
1/
b1010010 4
#45
0/
#46
1%
1'
b1101010 (
b10011 .
1/
b0100101 4
#47
0/
#48
0%
0'
b1101001 (
b10010 .
1/
b1001011 4
#49
0/
#50
b1101000 (
b10001 .
1/
b0010111 4
#51
0/
#52
b1100111 (
b10000 .
1/
b0101111 4
#53
0/
#54
b1100110 (
b01111 .
1/
b1011111 4
#55
0/
#56
b1100101 (
b01110 .
1/
b0111110 4
#57
0/
#58
b1100100 (
b01101 .
1/
b1111101 4
#59
0/
#60
b1100011 (
b01100 .
1/
b1111010 4
#61
0/
#62
b1100010 (
b01011 .
1/
b1110101 4
#63
0/
#64
b1100001 (
b01010 .
1/
b1101010 4
#65
0/
#66
b1100000 (
b01001 .
1/
b1010101 4
#67
0/
#68
b1011111 (
b01000 .
1/
b0101010 4
#69
0/
#70
b1011110 (
b00111 .
1/
b10001 2
b1010100 4
#71
0/
#72
b1011101 (
b00110 .
1/
b01111 2
b0101000 4
#73
0/
#74
b1011100 (
b00101 .
1/
b01101 2
b1010000 4
#75
0/
#76
b1011011 (
b00100 .
1/
b01100 2
b0100001 4
#77
0/
#78
b1011010 (
b00011 .
1/
b1000010 4
#79
0/
#80
b1011001 (
b00010 .
1/
b0000101 4
#81
0/
#82
b1011000 (
b00001 .
1/
b0001011 4
#83
0/
#84
b1010111 (
b00000 .
1/
b0010110 4
#85
0/
#86
1%
1'
b1010110 (
b01100 .
1/
b0101101 4
#87
0/
#88
0%
0'
b1010101 (
b01011 .
1/
b1011011 4
#89
0/
#90
b1010100 (
b01010 .
1/
b01011 2
b0110111 4
#91
0/
#92
b1010011 (
b01001 .
1/
b1101111 4
#93
0/
#94
b1010010 (
b01000 .
1/
b01001 2
b1011110 4
#95
0/
#96
b1010001 (
b00111 .
1/
b01000 2
b0111100 4
#97
0/
#98
b1010000 (
b00110 .
1/
b1111001 4
#99
0/
#100
b1001111 (
b00101 .
1/
b1110011 4
#101
0/
#102
b1001110 (
b00100 .
1/
b1100111 4
#103
0/
#104
b1001101 (
b00011 .
1/
b1001110 4
#105
0/
#106
b1001100 (
b00010 .
1/
b0011100 4
#107
0/
#108
b1001011 (
b00001 .
1/
b00111 2
b0111001 4
#109
0/
#110
b1001010 (
b00000 .
1/
b00011 2
b1110010 4
#111
0/
#112
1%
1'
b1001001 (
b00011 .
1/
b00001 2
b1100101 4
#113
0/
#114
0%
0'
b1001000 (
b00010 .
1/
b1001010 4
#115
0/
#116
b1000111 (
b00001 .
1/
b0010101 4
#117
0/
#118
b1000110 (
b00000 .
1/
b0101011 4
#119
0/
#120
1%
1'
b1000101 (
b00001 .
1/
b1010110 4
#121
0/
#122
0%
0'
b1000100 (
b00000 .
1/
b0101100 4
#123
0/
#124
1%
1'
b1000011 (
b00001 .
1/
b1011001 4
#125
0/
#126
0%
0'
b1000010 (
b00000 .
1/
b11101 2
b0110011 4
#127
0/
#128
1%
1'
b1000001 (
b11101 .
1/
b11010 2
b1100110 4
#129
0/
#130
0%
0'
b1000000 (
b11100 .
1/
b1001100 4
#131
0/
#132
b0111111 (
b11011 .
1/
b0011000 4
#133
0/
#134
b0111110 (
b11010 .
1/
b0110000 4
#135
0/
#136
b0111101 (
b11001 .
1/
b1100000 4
#137
0/
#138
b0111100 (
b11000 .
1/
b1000001 4
#139
0/
#140
b0111011 (
b10111 .
1/
b0000011 4
#141
0/
#142
b0111010 (
b10110 .
1/
b0000110 4
#143
0/
#144
b0111001 (
b10101 .
1/
b11000 2
b0001101 4
#145
0/
#146
b0111000 (
b10100 .
1/
b10101 2
b0011011 4
#147
0/
#148
b0110111 (
b10011 .
1/
b10011 2
b0110110 4
#149
0/
#150
b0110110 (
b10010 .
1/
b1101101 4
#151
0/
#152
b0110101 (
b10001 .
1/
b1011010 4
#153
0/
#154
b0110100 (
b10000 .
1/
b0110101 4
#155
0/
#156
b0110011 (
b01111 .
1/
b1101011 4
#157
0/
#158
b0110010 (
b01110 .
1/
b1010111 4
#159
0/
#160
b0110001 (
b01101 .
1/
b0101110 4
#161
0/
#162
b0110000 (
b01100 .
1/
b1011101 4
#163
0/
#164
b0101111 (
b01011 .
1/
b10001 2
b0111010 4
#165
0/
#166
b0101110 (
b01010 .
1/
b10000 2
b1110100 4
#167
0/
#168
b0101101 (
b01001 .
1/
b1101000 4
#169
0/
#170
b0101100 (
b01000 .
1/
b1010001 4
#171
0/
#172
b0101011 (
b00111 .
1/
b0100011 4
#173
0/
#174
b0101010 (
b00110 .
1/
b1000110 4
#175
0/
#176
b0101001 (
b00101 .
1/
b0001100 4
#177
0/
#178
b0101000 (
b00100 .
1/
b0011001 4
#179
0/
#180
b0100111 (
b00011 .
1/
b10001 2
b0110010 4
#181
0/
#182
b0100110 (
b00010 .
1/
b1100100 4
#183
0/
#184
b0100101 (
b00001 .
1/
b1001000 4
#185
0/
#186
b0100100 (
b00000 .
1/
b0010001 4
#187
0/
#188
1%
1'
b0100011 (
b10001 .
1/
b0100010 4
#189
0/
#190
0%
0'
b0100010 (
b10000 .
1/
b1000100 4
#191
0/
#192
b0100001 (
b01111 .
1/
b0001000 4
#193
0/
#194
b0100000 (
b01110 .
1/
b0010000 4
#195
0/
#196
b0011111 (
b01101 .
1/
b0100000 4
#197
0/
#198
b0011110 (
b01100 .
1/
b1000000 4
#199
0/
#200
b0011101 (
b01011 .
1/
b0000001 4
#201
0/
#202
b0011100 (
b01010 .
1/
b0000010 4
#203
0/
#204
b0011011 (
b01001 .
1/
b0000100 4
#205
0/
#206
b0011010 (
b01000 .
1/
11
b0001001 4
b00000000000000000000000000000000 5
#207
0/
#208
b0011001 (
b00000000000000000000000000000001 ,
b00000000000000000000000000000000 -
b00111 .
1/
01
b0010010 4
#209
0/
#210
b0011000 (
b00110 .
1/
b0100100 4
#211
0/
#212
b0010111 (
b00101 .
1/
b1001001 4
#213
0/
#214
b0010110 (
b00100 .
1/
b0010011 4
#215
0/
#216
b0010101 (
b00011 .
1/
b0100110 4
#217
0/
#218
b0010100 (
b00010 .
1/
b1001101 4
#219
0/
#220
b0010011 (
b00001 .
1/
b0011010 4
#221
0/
#222
b0010010 (
b00000 .
1/
b0110100 4
#223
0/
#224
1%
1'
b0010001 (
b10001 .
1/
b1101001 4
b00000000000000000000000000000001 5
#225
0/
#226
0%
0'
b0010000 (
b00000000000000000000000000000001 +
b00000000000000000000000000000010 ,
b00000000000000000000000000000001 -
b10000 .
1/
b00000001 3
b1010011 4
#227
0/
#228
b0001111 (
b01111 .
1/
b0100111 4
#229
0/
#230
b0001110 (
b01110 .
1/
b1001111 4
#231
0/
#232
b0001101 (
b01101 .
1/
b0011110 4
#233
0/
#234
b0001100 (
b01100 .
1/
b0111101 4
#235
0/
#236
b0001011 (
b01011 .
1/
b1111011 4
#237
0/
#238
b0001010 (
b01010 .
1/
b1110111 4
#239
0/
#240
b0001001 (
b01001 .
1/
b1101110 4
#241
0/
#242
b0001000 (
b01000 .
1/
b1011100 4
#243
0/
#244
b0000111 (
b00111 .
1/
b0111000 4
#245
0/
#246
b0000110 (
b00110 .
1/
b1110000 4
#247
0/
#248
b0000101 (
b00101 .
1/
b1100001 4
#249
0/
#250
b0000100 (
b00100 .
1/
b1000011 4
#251
0/
#252
b0000011 (
b00011 .
1/
b0000111 4
#253
0/
#254
b0000010 (
b00010 .
1/
b0001111 4
#255
0/
#256
b0000001 (
b00001 .
1/
b0011111 4
#257
0/
#258
b0000000 (
b00000 .
1/
b0111111 4
#259
0/
#260
1%
1'
b0111110 (
b10001 .
1/
b1111111 4
#261
0/
#262
0%
0'
b0111101 (
b00000000000000000000000000000010 +
b00000000000000000000000000000011 ,
b10000 .
1/
b00000011 3
b1111110 4
#263
0/
#264
b0111100 (
b01111 .
1/
b1111100 4
#265
0/
#266
b0111011 (
b01110 .
1/
b1111000 4
#267
0/
#268
b0111010 (
b01101 .
1/
b1110001 4
#269
0/
#270
b0111001 (
b01100 .
1/
b1100011 4
#271
0/
#272
b0111000 (
b01011 .
1/
b1000111 4
#273
0/
#274
b0110111 (
b01010 .
1/
b0001110 4
#275
0/
#276
b0110110 (
b01001 .
1/
b0011101 4
#277
0/
#278
b0110101 (
b01000 .
1/
b0111011 4
#279
0/
#280
b0110100 (
b00111 .
1/
b1110110 4
#281
0/
#282
b0110011 (
b00110 .
1/
b1101100 4
#283
0/
#284
b0110010 (
b00101 .
1/
b1011000 4
#285
0/
#286
b0110001 (
b00100 .
1/
b0110001 4
#287
0/
#288
b0110000 (
b00011 .
1/
b1100010 4
#289
0/
#290
b0101111 (
b00010 .
1/
b1000101 4
#291
0/
#292
b0101110 (
b00001 .
1/
b0001010 4
#293
0/
#294
b0101101 (
b00000 .
1/
b0010100 4
#295
0/
#296
1%
1'
b0101100 (
b10001 .
1/
b0101001 4
#297
0/
#298
0%
0'
b0101011 (
b00000000000000000000000000000011 +
b00000000000000000000000000000100 ,
b10000 .
1/
b00000111 3
b1010010 4
#299
0/
#300
b0101010 (
b01111 .
1/
b0100101 4
#301
0/
#302
b0101001 (
b01110 .
1/
b1001011 4
#303
0/
#304
b0101000 (
b01101 .
1/
b0010111 4
#305
0/
#306
b0100111 (
b01100 .
1/
b0101111 4
#307
0/
#308
b0100110 (
b01011 .
1/
b1011111 4
#309
0/
#310
b0100101 (
b01010 .
1/
b0111110 4
#311
0/
#312
b0100100 (
b01001 .
1/
b1111101 4
#313
0/
#314
b0100011 (
b01000 .
1/
b1111010 4
#315
0/
#316
b0100010 (
b00111 .
1/
b1110101 4
#317
0/
#318
b0100001 (
b00110 .
1/
b1101010 4
#319
0/
#320
b0100000 (
b00101 .
1/
b1010101 4
#321
0/
#322
b0011111 (
b00100 .
1/
b0101010 4
#323
0/
#324
b0011110 (
b00011 .
1/
b1010100 4
#325
0/
#326
b0011101 (
b00010 .
1/
b0101000 4
#327
0/
#328
b0011100 (
b00001 .
1/
b1010000 4
#329
0/
#330
b0011011 (
b00000 .
1/
b0100001 4
#331
0/
#332
1%
1'
b0011010 (
b10001 .
1/
b1000010 4
#333
0/
#334
0%
0'
b0011001 (
b00000000000000000000000000000100 +
b00000000000000000000000000000101 ,
b10000 .
1/
b00001111 3
b0000101 4
#335
0/
#336
b0011000 (
b01111 .
1/
b0001011 4
#337
0/
#338
b0010111 (
b01110 .
1/
b0010110 4
#339
0/
#340
b0010110 (
b01101 .
1/
b0101101 4
#341
0/
#342
b0010101 (
b01100 .
1/
b1011011 4
#343
0/
#344
b0010100 (
b01011 .
1/
b0110111 4
#345
0/
#346
b0010011 (
b01010 .
1/
b1101111 4
#347
0/
#348
b0010010 (
b01001 .
1/
b1011110 4
#349
0/
#350
b0010001 (
b01000 .
1/
b0111100 4
#351
0/
#352
b0010000 (
b00111 .
1/
b1111001 4
#353
0/
#354
b0001111 (
b00110 .
1/
b1110011 4
#355
0/
#356
b0001110 (
b00101 .
1/
b1100111 4
#357
0/
#358
b0001101 (
b00100 .
1/
b1001110 4
#359
0/
#360
b0001100 (
b00011 .
1/
b0011100 4
#361
0/
#362
b0001011 (
b00010 .
1/
b0111001 4
#363
0/
#364
b0001010 (
b00001 .
1/
b1110010 4
#365
0/
#366
b0001001 (
b00000 .
1/
b1100101 4
#367
0/
#368
1%
1'
b0001000 (
b10001 .
1/
b1001010 4
#369
0/
#370
0%
0'
b0000111 (
b00000000000000000000000000000101 +
b00000000000000000000000000000110 ,
b10000 .
1/
b00011111 3
b0010101 4
#371
0/
#372
b0000110 (
b01111 .
1/
b0101011 4
#373
0/
#374
b0000101 (
b01110 .
1/
b1010110 4
#375
0/
#376
b0000100 (
b01101 .
1/
b0101100 4
#377
0/
#378
b0000011 (
b01100 .
1/
b1011001 4
#379
0/
#380
b0000010 (
b01011 .
1/
b0110011 4
#381
0/
#382
b0000001 (
b01010 .
1/
b1100110 4
#383
0/
#384
b0000000 (
b01001 .
1/
b1001100 4
#385
0/
#386
b1001011 (
b01000 .
1/
b0011000 4
#387
0/
#388
b1001010 (
b00111 .
1/
b0110000 4
#389
0/
#390
b1001001 (
b00110 .
1/
b1100000 4
#391
0/
#392
b1001000 (
b00101 .
1/
b1000001 4
#393
0/
#394
b1000111 (
b00100 .
1/
b0000011 4
#395
0/
#396
b1000110 (
b00011 .
1/
b0000110 4
#397
0/
#398
b1000101 (
b00010 .
1/
b0001101 4
#399
0/
#400
b1000100 (
b00001 .
1/
b0011011 4
#401
0/
#402
b1000011 (
b00000 .
1/
b0110110 4
#403
0/
#404
1%
1'
b1000010 (
b10001 .
1/
b1101101 4
#405
0/
#406
0%
0'
b1000001 (
b00000000000000000000000000000110 +
b00000000000000000000000000000111 ,
b10000 .
1/
b00111111 3
b1011010 4
#407
0/
#408
b1000000 (
b01111 .
1/
b0110101 4
#409
0/
#410
b0111111 (
b01110 .
1/
b1101011 4
#411
0/
#412
b0111110 (
b01101 .
1/
b1010111 4
#413
0/
#414
b0111101 (
b01100 .
1/
b0101110 4
#415
0/
#416
b0111100 (
b01011 .
1/
b1011101 4
#417
0/
#418
b0111011 (
b01010 .
1/
b0111010 4
#419
0/
#420
b0111010 (
b01001 .
1/
b1110100 4
#421
0/
#422
b0111001 (
b01000 .
1/
b1101000 4
#423
0/
#424
b0111000 (
b00111 .
1/
b1010001 4
#425
0/
#426
b0110111 (
b00110 .
1/
b0100011 4
#427
0/
#428
b0110110 (
b00101 .
1/
b1000110 4
#429
0/
#430
b0110101 (
b00100 .
1/
b0001100 4
#431
0/
#432
b0110100 (
b00011 .
1/
b0011001 4
#433
0/
#434
b0110011 (
b00010 .
1/
b0110010 4
#435
0/
#436
b0110010 (
b00001 .
1/
b1100100 4
#437
0/
#438
b0110001 (
b00000 .
1/
b1001000 4
#439
0/
#440
1%
1'
b0110000 (
b10001 .
1/
b0010001 4
#441
0/
#442
0%
0'
b0101111 (
b00000000000000000000000000000111 +
b00000000000000000000000000001000 ,
b10000 .
1/
b01111111 3
b0100010 4
#443
0/
#444
b0101110 (
b01111 .
1/
b1000100 4
#445
0/
#446
b0101101 (
b01110 .
1/
b0001000 4
#447
0/
#448
b0101100 (
b01101 .
1/
b0010000 4
#449
0/
#450
b0101011 (
b01100 .
1/
b0100000 4
#451
0/
#452
b0101010 (
b01011 .
1/
b1000000 4
#453
0/
#454
b0101001 (
b01010 .
1/
b0000001 4
#455
0/
#456
b0101000 (
b01001 .
1/
b0000010 4
#457
0/
#458
b0100111 (
b01000 .
1/
b0000100 4
#459
0/
#460
b0100110 (
b00111 .
1/
b0001001 4
#461
0/
#462
b0100101 (
b00110 .
1/
b0010010 4
#463
0/
#464
b0100100 (
b00101 .
1/
b0100100 4
#465
0/
#466
b0100011 (
b00100 .
1/
b1001001 4
#467
0/
#468
b0100010 (
b00011 .
1/
b0010011 4
#469
0/
#470
b0100001 (
b00010 .
1/
b0100110 4
#471
0/
#472
b0100000 (
b00001 .
1/
b1001101 4
#473
0/
#474
b0011111 (
b00000 .
1/
b0011010 4
#475
0/
#476
1%
1'
b0011110 (
b10001 .
1/
b0110100 4
#477
0/
#478
0#
1$
0%
0'
b0011101 (
b00000000000000000000000000000001 *
b00000000000000000000000000001000 +
b00000000000000000000000000000000 ,
b10000 .
1/
b11111111 3
b1101001 4
#479
0/
#480
b1101000 (
b00000000000000000000000000000001 )
1/
b1010011 4
#481
0/
#482
b1010010 (
1/
b0100111 4
#483
0/
#484
b0100110 (
1/
b1001111 4
#485
0/
#486
b1001110 (
1/
b0011110 4
#487
0/
#488
b0011101 (
1/
b0111101 4
#489
0/
#490
b0111100 (
1/
b1111011 4
#491
0/
#492
b1111010 (
1/
b1110111 4
#493
0/
#494
b1110110 (
1/
b1101110 4
#495
0/
#496
b1101101 (
1/
b1011100 4
#497
0/
#498
b1011011 (
1/
b0111000 4
#499
0/
#500
b0110111 (
1/
b1110000 4
#501
0/
#502
b1101111 (
1/
b1100001 4
#503
0/
#504
b1100000 (
1/
b1000011 4
#505
0/
#506
b1000010 (
1/
b0000111 4
#507
0/
#508
b0000110 (
1/
b0001111 4
#509
0/
#510
b0001110 (
1/
b0011111 4
#511
0/
#512
b0011110 (
1/
b0111111 4
#513
0/
#514
b0111110 (
1/
b1111111 4
#515
0/
#516
b1111110 (
1/
b1111110 4
#517
0/
#518
b1111101 (
1/
b1111100 4
#519
0/
#520
b1111011 (
1/
b1111000 4
#521
0/
#522
b1110111 (
1/
b1110001 4
#523
0/
#524
b1110000 (
1/
b1100011 4
#525
0/
#526
b1100010 (
1/
b1000111 4
#527
0/
#528
b1000110 (
1/
b0001110 4
#529
0/
#530
b0001101 (
1/
b0011101 4
#531
0/
#532
b0011100 (
1/
b0111011 4
#533
0/
#534
b0111010 (
1/
b1110110 4
#535
0/
#536
b1110101 (
1/
b1101100 4
#537
0/
#538
b1101011 (
1/
b1011000 4
#539
0/
#540
b1010111 (
1/
b0110001 4
#541
0/
#542
b0110000 (
1/
b1100010 4
#543
0/
#544
b1100001 (
1/
b1000101 4
#545
0/
#546
b1000100 (
1/
b0001010 4
#547
0/
#548
b0001001 (
1/
b0010100 4
#549
0/
#550
b0010011 (
1/
b0101001 4
#551
0/
#552
b0101000 (
1/
b1010010 4
#553
0/
#554
b1010001 (
1/
b0100101 4
#555
0/
#556
b0100100 (
1/
b1001011 4
#557
0/
#558
b1001010 (
1/
b0010111 4
#559
0/
#560
b0010110 (
1/
b0101111 4
#561
0/
#562
b0101110 (
1/
b1011111 4
#563
0/
#564
b1011110 (
1/
b0111110 4
#565
0/
#566
b0111101 (
1/
b1111101 4
#567
0/
#568
b1111100 (
1/
b1111010 4
#569
0/
#570
b1111001 (
1/
b1110101 4
#571
0/
#572
b1110100 (
1/
b1101010 4
#573
0/
#574
b1101001 (
1/
b1010101 4
#575
0/
#576
b1010100 (
1/
b0101010 4
#577
0/
#578
b0101001 (
1/
b1010100 4
#579
0/
#580
b1010011 (
1/
b0101000 4
#581
0/
#582
b0100111 (
1/
b1010000 4
#583
0/
#584
b1001111 (
1/
b0100001 4
#585
0/
#586
b0100000 (
1/
b1000010 4
#587
0/
#588
b1000001 (
1/
b0000101 4
#589
0/
#590
b0000100 (
1/
b0001011 4
#591
0/
#592
b0001010 (
1/
b0010110 4
#593
0/
#594
b0010101 (
1/
b0101101 4
#595
0/
#596
b0101100 (
1/
b1011011 4
#597
0/
#598
b1011010 (
1/
b0110111 4
#599
0/
#600
b0110110 (
1/
b1101111 4
#601
0/
#602
b1101110 (
1/
b1011110 4
#603
0/
#604
b1011101 (
1/
b0111100 4
#605
0/
#606
b0111011 (
1/
b1111001 4
#607
0/
#608
b1111000 (
1/
b1110011 4
#609
0/
#610
b1110010 (
1/
b1100111 4
#611
0/
#612
b1100110 (
1/
b1001110 4
#613
0/
#614
b1001101 (
1/
b0011100 4
#615
0/
#616
b0011011 (
1/
b0111001 4
#617
0/
#618
b0111000 (
1/
b1110010 4
#619
0/
#620
b1110001 (
1/
b1100101 4
#621
0/
#622
b1100100 (
1/
b1001010 4
#623
0/
#624
b1001001 (
1/
b0010101 4
#625
0/
#626
b0010100 (
1/
b0101011 4
#627
0/
#628
b0101010 (
1/
b1010110 4
#629
0/
#630
b1010101 (
1/
b0101100 4
#631
0/
#632
b0101011 (
1/
b1011001 4
#633
0/
#634
b1011000 (
1/
b0110011 4
#635
0/
#636
b0110010 (
1/
b1100110 4
#637
0/
#638
b1100101 (
1/
b1001100 4
#639
0/
#640
b1001011 (
1/
b0011000 4
#641
0/
#642
b0010111 (
1/
b0110000 4
#643
0/
#644
b0101111 (
1/
b1100000 4
#645
0/
#646
b1011111 (
1/
b1000001 4
#647
0/
#648
b1000000 (
1/
b0000011 4
#649
0/
#650
b0000010 (
1/
b0000110 4
#651
0/
#652
b0000101 (
1/
b0001101 4
#653
0/
#654
b0001100 (
1/
b0011011 4
#655
0/
#656
b0011010 (
1/
b0110110 4
#657
0/
#658
b0110101 (
1/
b1101101 4
#659
0/
#660
b1101100 (
1/
b1011010 4
#661
0/
#662
b1011001 (
1/
b0110101 4
#663
0/
#664
b0110100 (
1/
b1101011 4
#665
0/
#666
b1101010 (
1/
b1010111 4
#667
0/
#668
b1010110 (
1/
b0101110 4
#669
0/
#670
b0101101 (
1/
b1011101 4
#671
0/
#672
b1011100 (
1/
b0111010 4
#673
0/
#674
b0111001 (
1/
b1110100 4
#675
0/
#676
b1110011 (
1/
b1101000 4
#677
0/
#678
b1100111 (
1/
b1010001 4
#679
0/
#680
b1010000 (
1/
b0100011 4
#681
0/
#682
b0100010 (
1/
b1000110 4
#683
0/
#684
b1000101 (
1/
b0001100 4
#685
0/
#686
b0001011 (
1/
b0011001 4
#687
0/
#688
b0011000 (
1/
b0110010 4
#689
0/
#690
b0110001 (
1/
b1100100 4
#691
0/
#692
b1100011 (
1/
b1001000 4
#693
0/
#694
b1000111 (
1/
b0010001 4
#695
0/
#696
b0010000 (
1/
b0100010 4
#697
0/
#698
b0100001 (
1/
b1000100 4
#699
0/
#700
b1000011 (
1/
b0001000 4
#701
0/
#702
b0000111 (
1/
b0010000 4
#703
0/
#704
b0001111 (
1/
b0100000 4
#705
0/
#706
b0011111 (
1/
b1000000 4
#707
0/
#708
b0111111 (
1/
b0000001 4
#709
0/
#710
b0000000 (
b00000000000000000000000000000010 *
1/
b0000010 4
#711
0/
#712
1&
1'
b0000001 (
b00000000000000000000000000000010 )
b00000000000000000000000000000011 *
1/
b0000100 4
#713
0/
#714
1#
0$
0&
0'
b0000011 (
b00000000000000000000000000000011 )
b00000000000000000000000000000000 *
b00000000000000000000000000000000 +
1/
b00000000 3
b0001001 4
#715
0/
#716
b0000010 (
b00000000000000000000000000000000 )
b01111 .
1/
b0010010 4
#717
0/
#718
b0000001 (
b01110 .
1/
b0100100 4
#719
0/
#720
b0000000 (
b01101 .
1/
b1001001 4
#721
0/
#722
b1001000 (
b01100 .
1/
11
b0010011 4
b00000000000000000000000000000000 5
#723
0/
#724
b1000111 (
b00000000000000000000000000000001 ,
b00000000000000000000000000000000 -
b01011 .
1/
01
b0100110 4
#725
0/
#726
b1000110 (
b01010 .
1/
b1001101 4
#727
0/
#728
b1000101 (
b01001 .
1/
b0011010 4
#729
0/
#730
b1000100 (
b01000 .
1/
b0110100 4
#731
0/
#732
b1000011 (
b00111 .
1/
b1101001 4
#733
0/
#734
b1000010 (
b00110 .
1/
b1010011 4
#735
0/
#736
b1000001 (
b00101 .
1/
b0100111 4
#737
0/
#738
b1000000 (
b00100 .
1/
b1001111 4
#739
0/
#740
b0111111 (
b00011 .
1/
b0011110 4
#741
0/
#742
b0111110 (
b00010 .
1/
b0111101 4
#743
0/
#744
b0111101 (
b00001 .
1/
b1111011 4
#745
0/
#746
b0111100 (
b00000 .
1/
b1110111 4
#747
0/
#748
1%
1'
b0111011 (
b10001 .
1/
b1101110 4
b00000000000000000000000000000001 5
#749
0/
#750
0%
0'
b0111010 (
b00000000000000000000000000000001 +
b00000000000000000000000000000010 ,
b00000000000000000000000000000001 -
b10000 .
1/
b00000001 3
b1011100 4
#751
0/
#752
b0111001 (
b01111 .
1/
b0111000 4
#753
0/
#754
b0111000 (
b01110 .
1/
b1110000 4
#755
0/
#756
b0110111 (
b01101 .
1/
b1100001 4
#757
0/
#758
b0110110 (
b01100 .
1/
b1000011 4
#759
0/
#760
b0110101 (
b01011 .
1/
b0000111 4
#761
0/
#762
b0110100 (
b01010 .
1/
b0001111 4
#763
0/
#764
b0110011 (
b01001 .
1/
b0011111 4
#765
0/
#766
b0110010 (
b01000 .
1/
b0111111 4
#767
0/
#768
b0110001 (
b00111 .
1/
b1111111 4
#769
0/
#770
b0110000 (
b00110 .
1/
b1111110 4
#771
0/
#772
b0101111 (
b00101 .
1/
b1111100 4
#773
0/
#774
b0101110 (
b00100 .
1/
b1111000 4
#775
0/
#776
b0101101 (
b00011 .
1/
b1110001 4
#777
0/
#778
b0101100 (
b00010 .
1/
b1100011 4
#779
0/
#780
b0101011 (
b00001 .
1/
b1000111 4
#781
0/
#782
b0101010 (
b00000 .
1/
b0001110 4
#783
0/
#784
1%
1'
b0101001 (
b10001 .
1/
b0011101 4
#785
0/
#786
0%
0'
b0101000 (
b00000000000000000000000000000010 +
b00000000000000000000000000000011 ,
b10000 .
1/
b00000011 3
b0111011 4
#787
0/
#788
b0100111 (
b01111 .
1/
b1110110 4
#789
0/
#790
b0100110 (
b01110 .
1/
b1101100 4
#791
0/
#792
b0100101 (
b01101 .
1/
b1011000 4
#793
0/
#794
b0100100 (
b01100 .
1/
b0110001 4
#795
0/
#796
b0100011 (
b01011 .
1/
b1100010 4
#797
0/
#798
b0100010 (
b01010 .
1/
b1000101 4
#799
0/
#800
b0100001 (
b01001 .
1/
b0001010 4
#801
0/
#802
b0100000 (
b01000 .
1/
b0010100 4
#803
0/
#804
b0011111 (
b00111 .
1/
b0101001 4
#805
0/
#806
b0011110 (
b00110 .
1/
b1010010 4
#807
0/
#808
b0011101 (
b00101 .
1/
b0100101 4
#809
0/
#810
b0011100 (
b00100 .
1/
b1001011 4
#811
0/
#812
b0011011 (
b00011 .
1/
b0010111 4
#813
0/
#814
b0011010 (
b00010 .
1/
b0101111 4
#815
0/
#816
b0011001 (
b00001 .
1/
b1011111 4
#817
0/
#818
b0011000 (
b00000 .
1/
b0111110 4
#819
0/
#820
1%
1'
b0010111 (
b10001 .
1/
b1111101 4
#821
0/
#822
0%
0'
b0010110 (
b00000000000000000000000000000011 +
b00000000000000000000000000000100 ,
b10000 .
1/
b00000111 3
b1111010 4
#823
0/
#824
b0010101 (
b01111 .
1/
b1110101 4
#825
0/
#826
b0010100 (
b01110 .
1/
b1101010 4
